ClusteringDefenders
…
LZ

26 4 2023

Clustering Defenders

The goal of this project is to profile defenders of the English Championship through clustering. We will perform clustering on player stats of Season 22/23 scraped from FBref (https://fbref.com/en/comps/10/stats/Championship-Stats) with the worldfootballR package (https://github.com/JaseZiv/worldfootballR). The data has already been downloaded and saved, see the Markdown document named Download Player Stats for more information (also on the metrics).

We load the tibble with the player stats:

library(tidyverse)
load(paste0(getwd(), "/data/Championship22_23_playerStats.RData"))
NL22_all

## # A tibble: 733 x 110
##       Rk Player Nation Pos   Squad Age    Born `MP_Playing Ti~` `Starts_Playin~`
##    <int> <chr>  <chr>  <chr> <chr> <chr> <int>            <int>            <int>
##  1     1 Max A~ eng E~ DF    Norw~ 23-1~  2000               43               42
##  2     2 Thelo~ no NOR FW,MF Wiga~ 20-3~  2002               39               11
##  3     3 Nelso~ eng E~ DF    Read~ 19-2~  2003                3                0
##  4     4 Kelvi~ <NA>   DF,MF Read~ <NA>     NA                7                0
##  5     5 Finla~ eng E~ FW,MF Pres~ 18-1~  2005                4                0
##  6     6 Elija~ eng E~ FW    Luto~ 25-1~  1998               41               38
##  7     7 Toby ~ eng E~ MF,FW Watf~ 18-0~  2005                4                0
##  8     8 Alber~ gh GHA FW,MF QPR   35-1~  1987               36               10
##  9     9 Micha~ eng E~ FW    Watf~ 17-2~  2005                1                0
## 10    10 Benik~ cd COD FW    Mill~ 30-0~  1993               19                8
## # ... with 723 more rows, and 101 more variables: `Min_Playing Time` <dbl>,
## #   `Mins_Per_90_Playing Time` <dbl>, Gls <int>, Ast <int>, `G+A` <int>,
## #   G_minus_PK <int>, PK <int>, PKatt <int>, xG_Expected <dbl>,
## #   npxG_Expected <dbl>, xAG_Expected <dbl>, `npxG+xAG_Expected` <dbl>,
## #   PrgC_Progression <int>, PrgP_Progression <int>, PrgR_Progression <int>,
## #   `Gls_Per 90 Minutes` <dbl>, `Ast_Per 90 Minutes` <dbl>,
## #   `G+A_Per 90 Minutes` <dbl>, `G_minus_PK_Per 90 Minutes` <dbl>, ...
…
metrics_agg <- c("Fls",  "Tkl_Tackles", "CardsPer90", "FoulsPerTackle")

metrics <- c(metrics_central, metrics_add, metrics_agg)

Cluster analysis

Now we are ready for the cluster analysis. Our new tibble of centre backs only consists of the chosen metrics and the Players name and minutes played:

cbs_ana <- NL22_defenders[ , c("Player", "Mins_Per_90", metrics)]
cbs_ana

## # A tibble: 226 x 28
##    Player       Mins_Per_90 Blocks_Blocks Sh_Blocks   Clr   Int `Won_Aerial Du~`
##    <chr>              <dbl>         <dbl>     <dbl> <dbl> <dbl>            <dbl>
##  1 Max Aarons          40.8         0.833     0.392  1.79 1.15             0.441
##  2 Anel Ahmedh~        29.8         0.940     0.403  3.19 1.85             2.05 
##  3 Semi Ajayi          13.2         0.833     0.379  2.95 1.36             3.11 
##  4 Ajibola Ale~        15.6         1.47      0.513  3.78 1.86             2.18 
##  5 Ryan Andrews         3.4         0.588     0      2.35 2.35             2.06 
##  6 Robert Atki~        23.8         0.924     0.462  3.91 1.51             5.46 
##  7 Daniel Ayala        22           1.09      0.727  4.73 1.64             3.09 
##  8 George Bald~        29.4         1.19      0.272  1.60 0.782            1.12 
##  9 Daniel Ball~        17.9         1.28      0.838  5.03 1.62             3.69 
## 10 Leon Balogun        13.7         1.17      0.511  5.26 2.12             3.80 
## # ... with 216 more rows, and 21 more variables: TacklesWonPercent <dbl>,
## #   Tkl_percent_Challenges <dbl>, Cmp_percent_Total <dbl>,
## #   Lost_Challenges <dbl>, Err <dbl>, Mins_Per_90 <dbl>, Carries_Carries <dbl>,
## #   PrgC_Carries <dbl>, Mis_Carries <dbl>, Dis_Carries <dbl>,
## #   PrgDist_Carries <dbl>, CrsPA <dbl>, Cmp_percent_Long <dbl>,
## #   Cmp_percent_Short <dbl>, Cmp_percent_Medium <dbl>, PKcon <dbl>, OG <dbl>,
## #   Fls <dbl>, Tkl_Tackles <dbl>, CardsPer90 <dbl>, FoulsPerTackle <dbl>
…
We see that the first 10 Principal Components explain approx 80% of variance.

We assemble a tibble with the principal component scores of the first 10 PCs for all players.

rownames(pca$x) <- cbs_ana$Player
n_pcs <- 10
df_pca <- as_tibble(reshape2::melt(pca$x[, 1:n_pcs]))
df_pca <- df_pca %>% rename("Player" = Var1) %>% 
  left_join(cbs_ana %>% select(Player), by = "Player")
df_pca

## # A tibble: 2,250 x 3
##    Player           Var2   value
##    <chr>            <fct>  <dbl>
##  1 Max Aarons       PC1    1.68 
##  2 Anel Ahmedhodzic PC1    0.610
##  3 Semi Ajayi       PC1   -2.40 
##  4 Ajibola Alese    PC1   -0.259
##  5 Ryan Andrews     PC1    1.31 
##  6 Robert Atkinson  PC1   -1.14 
##  7 Daniel Ayala     PC1   -3.89 
##  8 George Baldock   PC1    2.11 
##  9 Daniel Ballard   PC1   -2.45 
## 10 Leon Balogun     PC1   -1.55 
## # ... with 2,240 more rows
…
